\relax 
\providecommand\hyper@newdestlabel[2]{}
\providecommand\HyperFirstAtBeginDocument{\AtBeginDocument}
\HyperFirstAtBeginDocument{\ifx\hyper@anchor\@undefined
\global\let\oldcontentsline\contentsline
\gdef\contentsline#1#2#3#4{\oldcontentsline{#1}{#2}{#3}}
\global\let\oldnewlabel\newlabel
\gdef\newlabel#1#2{\newlabelxx{#1}#2}
\gdef\newlabelxx#1#2#3#4#5#6{\oldnewlabel{#1}{{#2}{#3}}}
\AtEndDocument{\ifx\hyper@anchor\@undefined
\let\contentsline\oldcontentsline
\let\newlabel\oldnewlabel
\fi}
\fi}
\global\let\hyper@last\relax 
\gdef\HyperFirstAtBeginDocument#1{#1}
\providecommand\HyField@AuxAddToFields[1]{}
\providecommand\HyField@AuxAddToCoFields[2]{}
\babel@aux{english}{}
\@writefile{toc}{\contentsline {section}{\numberline {1}Predictive Models}{1}{section.1}\protected@file@percent }
\newlabel{section2}{{1}{1}{Predictive Models}{section.1}{}}
\newlabel{eq:1}{{1}{1}{Predictive Models}{equation.1.1}{}}
\newlabel{eq:2}{{2}{1}{Predictive Models}{equation.1.2}{}}
\newlabel{eq:3}{{3}{1}{Predictive Models}{equation.1.3}{}}
\citation{Corcoran2017}
\citation{Bell2013}
\citation{Leung2018}
\newlabel{eq:4}{{4}{2}{Predictive Models}{equation.1.4}{}}
\@writefile{toc}{\contentsline {subsection}{\numberline {1.1}Linear Regression Approach}{2}{subsection.1.1}\protected@file@percent }
\newlabel{eq:5}{{5}{2}{Linear Regression Approach}{equation.1.5}{}}
\@writefile{lof}{\contentsline {figure}{\numberline {1}{\ignorespaces  An example of a regression block occurring at 300 cycles. The vertical line represents the failure point.}}{2}{figure.1}\protected@file@percent }
\newlabel{figure:fa}{{1}{2}{An example of a regression block occurring at 300 cycles. The vertical line represents the failure point}{figure.1}{}}
\citation{Hinkley1970}
\newlabel{eq:6}{{6}{3}{Linear Regression Approach}{equation.1.6}{}}
\newlabel{eq:7}{{7}{3}{Linear Regression Approach}{equation.1.7}{}}
\@writefile{toc}{\contentsline {subsection}{\numberline {1.2}Bayesian Model}{3}{subsection.1.2}\protected@file@percent }
\@writefile{toc}{\contentsline {subsubsection}{\numberline {1.2.1}Overview}{3}{subsubsection.1.2.1}\protected@file@percent }
\newlabel{eq:8}{{8}{3}{Overview}{equation.1.8}{}}
\citation{Corcoran2017}
\citation{Gelman2017}
\citation{Gelman2013}
\citation{Salvatier2016}
\citation{Hoffman2014}
\@writefile{lot}{\contentsline {table}{\numberline {1}{\ignorespaces Parameters of the Bayesian model}}{4}{table.1}\protected@file@percent }
\newlabel{tab:t2}{{1}{4}{Parameters of the Bayesian model}{table.1}{}}
\newlabel{eq:9}{{9}{4}{Overview}{equation.1.9}{}}
\newlabel{eq:10}{{10}{4}{Overview}{equation.1.10}{}}
\newlabel{eq:9b}{{11}{4}{Overview}{equation.1.11}{}}
\citation{Gelman2013}
\newlabel{eq:posterior_predict}{{12}{5}{Overview}{equation.1.12}{}}
\@writefile{lof}{\contentsline {figure}{\numberline {2}{\ignorespaces  Predictions generated by the Bayesian model at different time windows. Figures show the progression at 60\% (top) and 80\% (bottom) to failure. }}{5}{figure.2}\protected@file@percent }
\newlabel{figure:fb}{{2}{5}{Predictions generated by the Bayesian model at different time windows. Figures show the progression at 60\% (top) and 80\% (bottom) to failure}{figure.2}{}}
