\relax 
\providecommand\hyper@newdestlabel[2]{}
\providecommand\HyperFirstAtBeginDocument{\AtBeginDocument}
\HyperFirstAtBeginDocument{\ifx\hyper@anchor\@undefined
\global\let\oldcontentsline\contentsline
\gdef\contentsline#1#2#3#4{\oldcontentsline{#1}{#2}{#3}}
\global\let\oldnewlabel\newlabel
\gdef\newlabel#1#2{\newlabelxx{#1}#2}
\gdef\newlabelxx#1#2#3#4#5#6{\oldnewlabel{#1}{{#2}{#3}}}
\AtEndDocument{\ifx\hyper@anchor\@undefined
\let\contentsline\oldcontentsline
\let\newlabel\oldnewlabel
\fi}
\fi}
\global\let\hyper@last\relax 
\gdef\HyperFirstAtBeginDocument#1{#1}
\providecommand\HyField@AuxAddToFields[1]{}
\providecommand\HyField@AuxAddToCoFields[2]{}
\citation{Farrar2007}
\citation{Chen2013,Si2012}
\citation{Everton2016}
\citation{Paris1963}
\select@language{english}
\@writefile{toc}{\select@language{english}}
\@writefile{lof}{\select@language{english}}
\@writefile{lot}{\select@language{english}}
\@writefile{nlo}{\select@language{english}}
\@writefile{nls}{\select@language{english}}
\@writefile{toc}{\contentsline {section}{\numberline {1}Introduction}{1}{section.1}}
\newlabel{section1}{{1}{1}{Introduction}{section.1}{}}
\citation{FUKUZONO1985}
\citation{Voight1988,Voight1989}
\citation{Cornelius1993,Cornelius1994,Cornelius1995,Crosta2003,Boue2015,Lavallee2008,Corcoran2017}
\citation{Si2011,Sikorska2011}
\citation{Cornelius1993,Cornelius1994,Cornelius1995}
\citation{Todd2018}
\citation{Leung2019}
\citation{Bell2011}
\citation{Bevilacqua2018}
\citation{Leung2019}
\citation{Boue2015}
\citation{Boue2016}
\@writefile{lot}{\contentsline {table}{\numberline {1}{\ignorespaces Summary of Presented Results}}{3}{table.1}}
\newlabel{tab:table1}{{1}{3}{Summary of Presented Results}{table.1}{}}
\citation{Corcoran2017,Bell2013}
\citation{Todd2018}
\@writefile{toc}{\contentsline {section}{\numberline {2}Predictive Models}{4}{section.2}}
\newlabel{section2}{{2}{4}{Predictive Models}{section.2}{}}
\newlabel{eq:1}{{1}{4}{Predictive Models}{equation.2.1}{}}
\newlabel{eq:2}{{2}{4}{Predictive Models}{equation.2.2}{}}
\newlabel{eq:3}{{3}{4}{Predictive Models}{equation.2.3}{}}
\newlabel{eq:4}{{4}{4}{Predictive Models}{equation.2.4}{}}
\@writefile{toc}{\contentsline {subsection}{\numberline {2.1}Linear Regression Approach}{4}{subsection.2.1}}
\newlabel{LR}{{2.1}{4}{Linear Regression Approach}{subsection.2.1}{}}
\newlabel{eq:5}{{5}{4}{Linear Regression Approach}{equation.2.5}{}}
\citation{Hinkley1970}
\@writefile{lof}{\contentsline {figure}{\numberline {1}{\ignorespaces  An example of a regression block occurring at 300 cycles. The vertical solid line represents the failure point.}}{5}{figure.1}}
\newlabel{figure:fa}{{1}{5}{An example of a regression block occurring at 300 cycles. The vertical solid line represents the failure point}{figure.1}{}}
\newlabel{eq:6}{{6}{5}{Linear Regression Approach}{equation.2.6}{}}
\newlabel{eq:7}{{7}{5}{Linear Regression Approach}{equation.2.7}{}}
\citation{Corcoran2017}
\citation{Gelman2017,Gelman2013}
\citation{Leung2019,Corcoran2017}
\@writefile{toc}{\contentsline {subsection}{\numberline {2.2}Bayesian Model}{6}{subsection.2.2}}
\newlabel{bayesian model}{{2.2}{6}{Bayesian Model}{subsection.2.2}{}}
\@writefile{toc}{\contentsline {subsubsection}{\numberline {2.2.1}Overview}{6}{subsubsection.2.2.1}}
\newlabel{eq:8}{{8}{6}{Overview}{equation.2.8}{}}
\citation{Salvatier2016}
\citation{Hoffman2014}
\citation{Salvatier2016}
\citation{Gelman2013}
\@writefile{lot}{\contentsline {table}{\numberline {2}{\ignorespaces Parameters of the Bayesian model}}{7}{table.2}}
\newlabel{tab:t2}{{2}{7}{Parameters of the Bayesian model}{table.2}{}}
\newlabel{eq:log(p)}{{9}{7}{Overview}{equation.2.9}{}}
\newlabel{eq:posterior_predict}{{10}{7}{Overview}{equation.2.10}{}}
\@writefile{lof}{\contentsline {figure}{\numberline {2}{\ignorespaces  Predictions generated by the Bayesian model at different time windows. Figures show the progression at $0.6\mathaccentV {bar}016{t_f}$ (left) and $0.8\mathaccentV {bar}016{t_f}$ (right). }}{8}{figure.2}}
\newlabel{figure:fb}{{2}{8}{Predictions generated by the Bayesian model at different time windows. Figures show the progression at $0.6\bar {t_f}$ (left) and $0.8\bar {t_f}$ (right)}{figure.2}{}}
\@writefile{toc}{\contentsline {subsubsection}{\numberline {2.2.2}Bayesian Model Verification}{8}{subsubsection.2.2.2}}
\@writefile{lof}{\contentsline {figure}{\numberline {3}{\ignorespaces  Verification of the agreement of the Bayesian posterior predictions of $t_f$, the linear regression uncertainty model, and a brute-force Monte-Carlo simulation, taken at different cycles. }}{8}{figure.3}}
\newlabel{figure:f3}{{3}{8}{Verification of the agreement of the Bayesian posterior predictions of $t_f$, the linear regression uncertainty model, and a brute-force Monte-Carlo simulation, taken at different cycles}{figure.3}{}}
\citation{Corcoran2017}
\citation{Corcoran2017}
\citation{Corcoran2017}
\@writefile{toc}{\contentsline {section}{\numberline {3}Synthesized Fatigue Data Experiment}{9}{section.3}}
\newlabel{section3}{{3}{9}{Synthesized Fatigue Data Experiment}{section.3}{}}
\@writefile{toc}{\contentsline {subsection}{\numberline {3.1}Results}{9}{subsection.3.1}}
\newlabel{results}{{3.1}{9}{Results}{subsection.3.1}{}}
\@writefile{lof}{\contentsline {figure}{\numberline {4}{\ignorespaces  Realizations of simulated data with $\mathaccentV {bar}016{\alpha }=1.75$ (top) and $\mathaccentV {bar}016{\alpha }=2.25$ (bottom). Left plots show the feature rate (Eq. (\ref  {eq:2})), and right plots show the inverse feature rate (Eq. (\ref  {eq:3})). The linear regression and Bayesian model operated on the inverse feature rate (right plots).}}{10}{figure.4}}
\newlabel{figure:f4}{{4}{10}{Realizations of simulated data with $\bar {\alpha }=1.75$ (top) and $\bar {\alpha }=2.25$ (bottom). Left plots show the feature rate (Eq. (\ref {eq:2})), and right plots show the inverse feature rate (Eq. (\ref {eq:3})). The linear regression and Bayesian model operated on the inverse feature rate (right plots)}{figure.4}{}}
\@writefile{lof}{\contentsline {figure}{\numberline {5}{\ignorespaces  Bayesian model $t_f$ estimation compared to linear regression $t_f$ estimation.}}{11}{figure.5}}
\newlabel{figure:pdf_grid}{{5}{11}{Bayesian model $t_f$ estimation compared to linear regression $t_f$ estimation}{figure.5}{}}
\@writefile{lof}{\contentsline {figure}{\numberline {6}{\ignorespaces  Joint Distributions of $t_f$ and $\alpha $ made by the Bayesian model. The yellow $\times $ is the median prediction of the linear regression model, with an error bar extending to $+/-$ the standard deviation of a best-fit normal distribution, the blue shaded regions correspond to the Bayesian model’s joint traces, and the red $\star $ is the true values $\mathaccentV {bar}016{\alpha }$ and $\mathaccentV {bar}016{t_f}$. The linear regression marker is not estimating the value of $\mathaccentV {bar}016{\alpha }$, and is set at 2.0 because of the definition of the linear regression.}}{12}{figure.6}}
\newlabel{figure:joint_grid}{{6}{12}{Joint Distributions of $t_f$ and $\alpha $ made by the Bayesian model. The yellow $\times $ is the median prediction of the linear regression model, with an error bar extending to $+/-$ the standard deviation of a best-fit normal distribution, the blue shaded regions correspond to the Bayesian model’s joint traces, and the red $\star $ is the true values $\bar {\alpha }$ and $\bar {t_f}$. The linear regression marker is not estimating the value of $\bar {\alpha }$, and is set at 2.0 because of the definition of the linear regression}{figure.6}{}}
\citation{Leung2019}
\citation{Corcoran2017,Leung2019}
\@writefile{toc}{\contentsline {section}{\numberline {4}Fatigue Data Experiment}{13}{section.4}}
\newlabel{section4}{{4}{13}{Fatigue Data Experiment}{section.4}{}}
\@writefile{lof}{\contentsline {figure}{\numberline {7}{\ignorespaces  (left and center) Geometry of the specimen used in the fatigue experiment. (right) Feature (crack growth rate) and its inverse with respect to cycle.}}{14}{figure.7}}
\newlabel{figure:f8}{{7}{14}{(left and center) Geometry of the specimen used in the fatigue experiment. (right) Feature (crack growth rate) and its inverse with respect to cycle}{figure.7}{}}
\@writefile{lot}{\contentsline {table}{\numberline {3}{\ignorespaces Fatigue test specimen dimensions}}{14}{table.3}}
\newlabel{tab:t3}{{3}{14}{Fatigue test specimen dimensions}{table.3}{}}
\@writefile{lot}{\contentsline {table}{\numberline {4}{\ignorespaces Quantified uncertainties of each input parameter of the empirical crack growth law.}}{15}{table.4}}
\newlabel{tab:t4}{{4}{15}{Quantified uncertainties of each input parameter of the empirical crack growth law}{table.4}{}}
\@writefile{lof}{\contentsline {figure}{\numberline {8}{\ignorespaces  $t_f$ estimation using Bayesian switch-point model, using entirety of data until 0.75$\mathaccentV {bar}016{t_f}$}}{15}{figure.8}}
\newlabel{figure:ramin}{{8}{15}{$t_f$ estimation using Bayesian switch-point model, using entirety of data until 0.75$\bar {t_f}$}{figure.8}{}}
\@writefile{lof}{\contentsline {figure}{\numberline {9}{\ignorespaces  (left) Posterior prediction using entirety of cycle data, from cycle 0 to to 0.65$\mathaccentV {bar}016{t_f}$. (right) Posterior prediction using cycle data, truncated at $\mathaccentV {hat}05E{\alpha _{sp}}$, data showing from 0.17$\mathaccentV {bar}016{t_f}$ to 0.65$\mathaccentV {bar}016{t_f}$}}{16}{figure.9}}
\newlabel{figure:fatdat_pre}{{9}{16}{(left) Posterior prediction using entirety of cycle data, from cycle 0 to to 0.65$\bar {t_f}$. (right) Posterior prediction using cycle data, truncated at $\hat {\alpha _{sp}}$, data showing from 0.17$\bar {t_f}$ to 0.65$\bar {t_f}$}{figure.9}{}}
\@writefile{lof}{\contentsline {figure}{\numberline {10}{\ignorespaces  (left) Linear regression and Bayesian model $t_f$ estimation using the entire data set at prescribed intervals. (right) Linear regression and Bayesian model $t_f$ estimation, data truncated at $\alpha $ switchpoint}}{16}{figure.10}}
\newlabel{figure:fatdat_pdf}{{10}{16}{(left) Linear regression and Bayesian model $t_f$ estimation using the entire data set at prescribed intervals. (right) Linear regression and Bayesian model $t_f$ estimation, data truncated at $\alpha $ switchpoint}{figure.10}{}}
\@writefile{lof}{\contentsline {figure}{\numberline {11}{\ignorespaces  Joint Distributions of $t_f$ and $\alpha $ made by the Bayesian model for the un-altered fatigue experiment. The yellow $\times $ is the median prediction of the linear regression model, the blue shaded regions correspond to the Bayesian model’s joint traces, and blue dashed line is the recorded failure cycle, $\mathaccentV {bar}016{t_f}$. The linear regression marker is not estimating the value of $\alpha $, and is set at 2.0 because of the definition of the linear regression.}}{17}{figure.11}}
\newlabel{figure:fatdatjoint_grid}{{11}{17}{Joint Distributions of $t_f$ and $\alpha $ made by the Bayesian model for the un-altered fatigue experiment. The yellow $\times $ is the median prediction of the linear regression model, the blue shaded regions correspond to the Bayesian model’s joint traces, and blue dashed line is the recorded failure cycle, $\bar {t_f}$. The linear regression marker is not estimating the value of $\alpha $, and is set at 2.0 because of the definition of the linear regression}{figure.11}{}}
\citation{Leung2019}
\citation{Voight1989,Cornelius1993}
\citation{Leung2019}
\citation{Corcoran2017}
\@writefile{toc}{\contentsline {section}{\numberline {5}Conclusions and Future Work}{18}{section.5}}
\newlabel{conclusion}{{5}{18}{Conclusions and Future Work}{section.5}{}}
\citation{Leung2019}
\citation{Todd2018}
\citation{*}
\bibstyle{ieeetr}
\bibdata{refs}
\bibcite{Farrar2007}{1}
\bibcite{Chen2013}{2}
\bibcite{Si2012}{3}
\bibcite{Everton2016}{4}
\bibcite{Paris1963}{5}
\bibcite{FUKUZONO1985}{6}
\bibcite{Voight1988}{7}
\bibcite{Voight1989}{8}
\bibcite{Cornelius1993}{9}
\bibcite{Cornelius1994}{10}
\bibcite{Cornelius1995}{11}
\bibcite{Crosta2003}{12}
\bibcite{Boue2015}{13}
\bibcite{Lavallee2008}{14}
\bibcite{Corcoran2017}{15}
\bibcite{Si2011}{16}
\bibcite{Sikorska2011}{17}
\bibcite{Todd2018}{18}
\bibcite{Leung2019}{19}
\bibcite{Bell2011}{20}
\bibcite{Bevilacqua2018}{21}
\bibcite{Boue2016}{22}
\bibcite{Bell2013}{23}
\bibcite{Hinkley1970}{24}
\bibcite{Gelman2017}{25}
\bibcite{Gelman2013}{26}
\bibcite{Salvatier2016}{27}
\bibcite{Hoffman2014}{28}
