\relax 
\providecommand\hyper@newdestlabel[2]{}
\providecommand\HyperFirstAtBeginDocument{\AtBeginDocument}
\HyperFirstAtBeginDocument{\ifx\hyper@anchor\@undefined
\global\let\oldcontentsline\contentsline
\gdef\contentsline#1#2#3#4{\oldcontentsline{#1}{#2}{#3}}
\global\let\oldnewlabel\newlabel
\gdef\newlabel#1#2{\newlabelxx{#1}#2}
\gdef\newlabelxx#1#2#3#4#5#6{\oldnewlabel{#1}{{#2}{#3}}}
\AtEndDocument{\ifx\hyper@anchor\@undefined
\let\contentsline\oldcontentsline
\let\newlabel\oldnewlabel
\fi}
\fi}
\global\let\hyper@last\relax 
\gdef\HyperFirstAtBeginDocument#1{#1}
\providecommand\HyField@AuxAddToFields[1]{}
\providecommand\HyField@AuxAddToCoFields[2]{}
\citation{Gorthi2010a}
\babel@aux{english}{}
\@writefile{toc}{\contentsline {section}{\numberline {1}Introduction}{1}{section.1}}
\newlabel{section1}{{1}{1}{Introduction}{section.1}{}}
\newlabel{eq:dphi}{{1}{1}{Introduction}{equation.1.1}{}}
\newlabel{fig:schematic1}{{1}{1}{Introduction}{equation.1.1}{}}
\citation{Zhang2016a}
\newlabel{eq:hali}{{2}{2}{Introduction}{equation.1.2}{}}
\newlabel{fringe_shifts}{{3}{2}{Introduction}{equation.1.3}{}}
\@writefile{toc}{\contentsline {section}{\numberline {2}Analytical Model}{2}{section.2}}
\newlabel{section2}{{2}{2}{Analytical Model}{section.2}{}}
\@writefile{toc}{\contentsline {subsection}{\numberline {2.1}Output Noise Formulation}{2}{subsection.2.1}}
\newlabel{eq:phase_calc}{{4}{2}{Output Noise Formulation}{equation.2.4}{}}
\newlabel{eq:I_k}{{5}{2}{Output Noise Formulation}{equation.2.5}{}}
\newlabel{eq:true_phi}{{6}{2}{Output Noise Formulation}{equation.2.6}{}}
\newlabel{eq:Ir2}{{7}{2}{Output Noise Formulation}{equation.2.7}{}}
\newlabel{eq:Io2}{{8}{2}{Output Noise Formulation}{equation.2.8}{}}
\newlabel{eq:phi_r}{{9}{3}{Output Noise Formulation}{equation.2.9}{}}
\newlabel{eq:phi_o}{{10}{3}{Output Noise Formulation}{equation.2.10}{}}
\newlabel{eq:phi_long}{{11}{3}{Output Noise Formulation}{equation.2.11}{}}
\newlabel{eq:deltaphifull}{{12}{3}{Output Noise Formulation}{equation.2.12}{}}
\newlabel{eq:phi_r}{{13}{3}{Output Noise Formulation}{equation.2.13}{}}
\newlabel{eq:bb}{{14}{3}{Output Noise Formulation}{equation.2.14}{}}
\@writefile{toc}{\contentsline {subsection}{\numberline {2.2}PDF generation}{3}{subsection.2.2}}
\@writefile{toc}{\contentsline {subsubsection}{\numberline {2.2.1}Statistically Describing Numerator and Denominator}{3}{subsubsection.2.2.1}}
\bibstyle{ieeetr}
\bibdata{MyCollection}
\bibcite{Gorthi2010a}{1}
\bibcite{Zhang2016a}{2}
\@writefile{toc}{\contentsline {subsubsection}{\numberline {2.2.2}compute PDF}{4}{subsubsection.2.2.2}}
\@writefile{toc}{\contentsline {section}{\numberline {3}Graphical Model}{4}{section.3}}
\newlabel{section2}{{3}{4}{Graphical Model}{section.3}{}}
\@writefile{toc}{\contentsline {section}{\numberline {4}Conclusion}{4}{section.4}}
\newlabel{conclusion}{{4}{4}{Conclusion}{section.4}{}}
\@writefile{toc}{\contentsline {paragraph}{Acknowledgment:}{4}{paragraph*.1}}
